AAD/Pratico/Arquitetura/Exemplo/simulation/qsim/popCounter_32bitSerial.msim.vcd
$comment
	File created using the following command:
		vcd file popCounter_32bitSerial.msim.vcd -direction
$end
$date
	Sun Nov 19 11:59:17 2023
$end
$version
	ModelSim Version 10.5b
$end
$timescale
	1ps
$end

$scope module popcounter_32bitserial_vhd_vec_tst $end
$var wire 1 ! clk $end
$var wire 1 " cnt [5] $end
$var wire 1 # cnt [4] $end
$var wire 1 $ cnt [3] $end
$var wire 1 % cnt [2] $end
$var wire 1 & cnt [1] $end
$var wire 1 ' cnt [0] $end
$var wire 1 ( dIn $end
$var wire 1 ) nGRst $end

$scope module i1 $end
$var wire 1 * gnd $end
$var wire 1 + vcc $end
$var wire 1 , unknown $end
$var wire 1 - devoe $end
$var wire 1 . devclrn $end
$var wire 1 / devpor $end
$var wire 1 0 ww_devoe $end
$var wire 1 1 ww_devclrn $end
$var wire 1 2 ww_devpor $end
$var wire 1 3 ww_nGRst $end
$var wire 1 4 ww_clk $end
$var wire 1 5 ww_dIn $end
$var wire 1 6 ww_cnt [5] $end
$var wire 1 7 ww_cnt [4] $end
$var wire 1 8 ww_cnt [3] $end
$var wire 1 9 ww_cnt [2] $end
$var wire 1 : ww_cnt [1] $end
$var wire 1 ; ww_cnt [0] $end
$var wire 1 < \~QUARTUS_CREATED_GND~I_combout\ $end
$var wire 1 = \clk~input_o\ $end
$var wire 1 > \clk~inputCLKENA0_outclk\ $end
$var wire 1 ? \bc|ff0|Q~0_combout\ $end
$var wire 1 @ \nGRst~input_o\ $end
$var wire 1 A \bc|ff1|Q~0_combout\ $end
$var wire 1 B \bc|ff1|Q~q\ $end
$var wire 1 C \bc|ff2|Q~0_combout\ $end
$var wire 1 D \bc|ff2|Q~q\ $end
$var wire 1 E \bc|ff3|Q~0_combout\ $end
$var wire 1 F \bc|ff3|Q~q\ $end
$var wire 1 G \bc|ff4|Q~0_combout\ $end
$var wire 1 H \bc|ff4|Q~q\ $end
$var wire 1 I \bc|ff5|Q~0_combout\ $end
$var wire 1 J \bc|ff5|Q~q\ $end
$var wire 1 K \con|nad2|y~1_combout\ $end
$var wire 1 L \con|nad2|y~2_combout\ $end
$var wire 1 M \bc|ff0|Q~q\ $end
$var wire 1 N \con|nord|y~0_combout\ $end
$var wire 1 O \pr5|ff0|Q~q\ $end
$var wire 1 P \dIn~input_o\ $end
$var wire 1 Q \ff|Q~q\ $end
$var wire 1 R \hd|hA10|xor20|y~combout\ $end
$var wire 1 S \pr6|ff0|Q~0_combout\ $end
$var wire 1 T \con|nad2|y~0_combout\ $end
$var wire 1 U \con|nad4|y~0_combout\ $end
$var wire 1 V \pr6|ff0|Q~q\ $end
$var wire 1 W \pr5|ff1|Q~feeder_combout\ $end
$var wire 1 X \pr5|ff1|Q~DUPLICATE_q\ $end
$var wire 1 Y \hd|hA11|xor20|y~combout\ $end
$var wire 1 Z \pr6|ff1|Q~0_combout\ $end
$var wire 1 [ \pr6|ff1|Q~q\ $end
$var wire 1 \ \pr5|ff2|Q~q\ $end
$var wire 1 ] \hd|hA12|xor20|y~combout\ $end
$var wire 1 ^ \pr6|ff2|Q~0_combout\ $end
$var wire 1 _ \pr6|ff2|Q~q\ $end
$var wire 1 ` \pr5|ff3|Q~q\ $end
$var wire 1 a \hd|hA13|xor20|y~combout\ $end
$var wire 1 b \pr6|ff3|Q~0_combout\ $end
$var wire 1 c \pr6|ff3|Q~q\ $end
$var wire 1 d \pr5|ff4|Q~q\ $end
$var wire 1 e \hd|hA14|xor20|y~combout\ $end
$var wire 1 f \pr6|ff4|Q~0_combout\ $end
$var wire 1 g \pr6|ff4|Q~q\ $end
$var wire 1 h \pr5|ff2|Q~DUPLICATE_q\ $end
$var wire 1 i \pr5|ff3|Q~DUPLICATE_q\ $end
$var wire 1 j \pr5|ff1|Q~q\ $end
$var wire 1 k \hd|hA14|and20|y~combout\ $end
$var wire 1 l \pr6|ff5|Q~q\ $end
$var wire 1 m \pr5|ff3|ALT_INV_Q~DUPLICATE_q\ $end
$var wire 1 n \pr5|ff2|ALT_INV_Q~DUPLICATE_q\ $end
$var wire 1 o \pr5|ff1|ALT_INV_Q~DUPLICATE_q\ $end
$var wire 1 p \ALT_INV_nGRst~input_o\ $end
$var wire 1 q \ALT_INV_clk~input_o\ $end
$var wire 1 r \con|nad2|ALT_INV_y~2_combout\ $end
$var wire 1 s \con|nad2|ALT_INV_y~1_combout\ $end
$var wire 1 t \hd|hA14|xor20|ALT_INV_y~combout\ $end
$var wire 1 u \pr5|ff4|ALT_INV_Q~q\ $end
$var wire 1 v \hd|hA13|xor20|ALT_INV_y~combout\ $end
$var wire 1 w \pr5|ff3|ALT_INV_Q~q\ $end
$var wire 1 x \hd|hA12|xor20|ALT_INV_y~combout\ $end
$var wire 1 y \pr5|ff2|ALT_INV_Q~q\ $end
$var wire 1 z \hd|hA11|xor20|ALT_INV_y~combout\ $end
$var wire 1 { \pr5|ff1|ALT_INV_Q~q\ $end
$var wire 1 | \con|nad4|ALT_INV_y~0_combout\ $end
$var wire 1 } \bc|ff0|ALT_INV_Q~q\ $end
$var wire 1 ~ \bc|ff4|ALT_INV_Q~q\ $end
$var wire 1 !! \bc|ff3|ALT_INV_Q~q\ $end
$var wire 1 "! \con|nad2|ALT_INV_y~0_combout\ $end
$var wire 1 #! \bc|ff2|ALT_INV_Q~q\ $end
$var wire 1 $! \bc|ff1|ALT_INV_Q~q\ $end
$var wire 1 %! \bc|ff5|ALT_INV_Q~q\ $end
$var wire 1 &! \hd|hA10|xor20|ALT_INV_y~combout\ $end
$var wire 1 '! \pr5|ff0|ALT_INV_Q~q\ $end
$var wire 1 (! \ff|ALT_INV_Q~q\ $end
$var wire 1 )! \pr6|ff5|ALT_INV_Q~q\ $end
$var wire 1 *! \pr6|ff4|ALT_INV_Q~q\ $end
$var wire 1 +! \pr6|ff3|ALT_INV_Q~q\ $end
$var wire 1 ,! \pr6|ff2|ALT_INV_Q~q\ $end
$var wire 1 -! \pr6|ff1|ALT_INV_Q~q\ $end
$var wire 1 .! \pr6|ff0|ALT_INV_Q~q\ $end
$upscope $end
$upscope $end
$enddefinitions $end
#0
$dumpvars
0!
1(
0)
0*
1+
x,
1-
1.
1/
10
11
12
03
04
15
x<
0=
0>
1?
0@
0A
0B
0C
0D
0E
0F
0G
0H
0I
0J
0K
0L
0M
0N
0O
1P
0Q
0R
1S
1T
0U
0V
0W
0X
0Y
1Z
0[
0\
0]
1^
0_
0`
0a
1b
0c
0d
0e
1f
0g
0h
0i
0j
1k
0l
1m
1n
1o
1p
1q
1r
1s
1t
1u
1v
1w
1x
1y
1z
1{
1|
1}
1~
1!!
0"!
1#!
1$!
1%!
1&!
1'!
1(!
1)!
1*!
1+!
1,!
1-!
1.!
16
17
18
19
1:
1;
1"
1#
1$
1%
1&
1'
$end
#20000
1!
14
1=
1>
0q
1L
1U
1M
1Q
0(!
0}
0|
0r
0M
0Q
0?
1A
1R
0&!
1(!
1}
1?
0A
0R
0S
1&!
1S
#40000
0!
1)
04
13
1@
0=
0>
1q
0p
0L
0U
1|
1r
#60000
1!
14
1=
1>
0q
1M
1Q
0(!
0}
0?
1A
1U
1R
0&!
0|
0S
#80000
0!
04
0=
0>
1q
0U
1|
#100000
1!
14
1=
1>
0q
1U
1B
0M
1O
0'!
1}
0$!
0|
0T
1?
0U
0R
1Y
0z
1&!
1|
1"!
1S
1W
0Z
#120000
0!
04
0=
0>
1q
#140000
1!
14
1=
1>
0q
1M
0O
1X
1j
0{
0o
1'!
0}
0?
0A
1C
1R
0&!
0S
#160000
0!
04
0=
0>
1q
#180000
1!
14
1=
1>
0q
0B
1D
0M
1O
0'!
1}
0#!
1$!
1?
0R
0Y
1]
0x
1z
1&!
1S
0W
1Z
0^
#200000
0!
04
0=
0>
1q
#220000
1!
14
1=
1>
0q
1M
0O
0X
1\
1h
0j
1{
0n
0y
1o
1'!
0}
0?
1A
1R
0&!
0S
#240000
0!
04
0=
0>
1q
#260000
1!
14
1=
1>
0q
1B
0M
1O
0'!
1}
0$!
1?
0R
1Y
0z
1&!
1S
1W
0Z
#280000
0!
04
0=
0>
1q
#300000
1!
14
1=
1>
0q
1M
0O
1X
1j
0{
0o
1'!
0}
0?
0A
0C
1E
1R
0&!
0S
#320000
0!
04
0=
0>
1q
#340000
1!
14
1=
1>
0q
0B
0D
1F
0M
1O
0'!
1}
0!!
1#!
1$!
1T
1?
0R
0Y
0]
1a
0v
1x
1z
1&!
0"!
1S
0W
1Z
1^
0b
#360000
0!
04
0=
0>
1q
#380000
1!
14
1=
1>
0q
1M
0O
0X
0\
1`
0h
1i
0j
1{
0m
1n
0w
1y
1o
1'!
0}
0?
1A
1R
0&!
0S
#400000
0!
04
0=
0>
1q
#420000
1!
14
1=
1>
0q
1B
0M
1O
0'!
1}
0$!
0T
1?
0R
1Y
0z
1&!
1"!
1S
1W
0Z
#440000
0!
04
0=
0>
1q
#460000
1!
14
1=
1>
0q
1M
0O
1X
1j
0{
0o
1'!
0}
0?
0A
1C
1R
0&!
0S
#480000
0!
04
0=
0>
1q
#500000
1!
14
1=
1>
0q
0B
1D
0M
1O
0'!
1}
0#!
1$!
1?
0R
0Y
1]
0x
1z
1&!
1S
0W
1Z
0^
#520000
0!
04
0=
0>
1q
#540000
1!
14
1=
1>
0q
1M
0O
0X
1\
1h
0j
1{
0n
0y
1o
1'!
0}
0?
1A
1R
0&!
0S
#560000
0!
04
0=
0>
1q
#580000
1!
14
1=
1>
0q
1B
0M
1O
0'!
1}
0$!
1?
0R
1Y
0z
1&!
1S
1W
0Z
#600000
0!
04
0=
0>
1q
#620000
1!
14
1=
1>
0q
1M
0O
1X
1j
0{
0o
1'!
0}
0?
0A
0C
0E
1G
1R
0&!
0S
#640000
0!
04
0=
0>
1q
#660000
1!
14
1=
1>
0q
0B
0D
0F
1H
0M
1O
0'!
1}
0~
1!!
1#!
1$!
1T
1?
0R
0Y
0]
0a
1e
0t
1v
1x
1z
1&!
0"!
1S
0W
1Z
1^
1b
0f
#680000
0!
04
0=
0>
1q
#700000
1!
14
1=
1>
0q
1M
0O
0X
0\
0`
1d
0h
0i
0j
1{
1m
1n
0u
1w
1y
1o
1'!
0}
0?
1A
1R
0&!
0S
#720000
0!
04
0=
0>
1q
#740000
1!
14
1=
1>
0q
1B
0M
1O
0'!
1}
0$!
0T
1?
0R
1Y
0z
1&!
1"!
1S
1W
0Z
#760000
0!
04
0=
0>
1q
#780000
1!
14
1=
1>
0q
1M
0O
1X
1j
0{
0o
1'!
0}
0?
0A
1C
1R
0&!
0S
#800000
0!
04
0=
0>
1q
#820000
1!
14
1=
1>
0q
0B
1D
0M
1O
0'!
1}
0#!
1$!
1?
0R
0Y
1]
0x
1z
1&!
1S
0W
1Z
0^
#840000
0!
04
0=
0>
1q
#860000
1!
14
1=
1>
0q
1M
0O
0X
1\
1h
0j
1{
0n
0y
1o
1'!
0}
0?
1A
1R
0&!
0S
#880000
0!
04
0=
0>
1q
#900000
1!
14
1=
1>
0q
1B
0M
1O
0'!
1}
0$!
1?
0R
1Y
0z
1&!
1S
1W
0Z
#920000
0!
04
0=
0>
1q
#940000
1!
14
1=
1>
0q
1M
0O
1X
1j
0{
0o
1'!
0}
0?
0A
0C
1E
1R
0&!
0S
#960000
0!
04
0=
0>
1q
#980000
1!
14
1=
1>
0q
0B
0D
1F
0M
1O
0'!
1}
0!!
1#!
1$!
1T
1K
1?
0R
0Y
0]
1a
0v
1x
1z
1&!
0s
0"!
1S
0W
1Z
1^
0b
#1000000
0!
04
0=
0>
1q
1N
1V
1[
1_
1l
0)!
0,!
0-!
0.!
0;
0:
09
06
0'
0&
0%
0"
#1020000
1!
14
1=
1>
0q
0N
1M
0O
0X
0\
1`
0h
1i
0j
1{
0m
1n
0w
1y
1o
1'!
0}
0?
1A
1L
1R
0&!
0r
0F
0H
0M
0Q
0`
0d
0i
0S
1m
1u
1w
1(!
1}
1~
1!!
0K
1?
0A
0E
0G
0L
0R
0a
0e
1t
1v
1&!
1r
1s
1S
1b
1f
#1040000
0!
04
0=
0>
1q
#1060000
1!
14
1=
1>
0q
1M
1Q
0(!
0}
0?
1A
1U
1R
0&!
0|
0V
0[
0_
0l
0S
1)!
1,!
1-!
1.!
1;
1:
19
16
1'
1&
1%
1"
#1080000
0!
04
0=
0>
1q
0U
1|
#1100000
1!
14
1=
1>
0q
1U
1B
0M
1O
0'!
1}
0$!
0|
0T
1?
0U
0R
1Y
0z
1&!
1|
1"!
1S
1W
0Z
#1120000
0!
04
0=
0>
1q
#1140000
1!
14
1=
1>
0q
1M
0O
1X
1j
0{
0o
1'!
0}
0?
0A
1C
1R
0&!
0S
#1160000
0!
04
0=
0>
1q
#1180000
1!
14
1=
1>
0q
0B
1D
0M
1O
0'!
1}
0#!
1$!
1?
0R
0Y
1]
0x
1z
1&!
1S
0W
1Z
0^
#1200000
0!
04
0=
0>
1q
#1220000
1!
14
1=
1>
0q
1M
0O
0X
1\
1h
0j
1{
0n
0y
1o
1'!
0}
0?
1A
1R
0&!
0S
#1240000
0!
04
0=
0>
1q
#1260000
1!
14
1=
1>
0q
1B
0M
1O
0'!
1}
0$!
1?
0R
1Y
0z
1&!
1S
1W
0Z
#1280000
0!
04
0=
0>
1q
#1300000
1!
14
1=
1>
0q
1M
0O
1X
1j
0{
0o
1'!
0}
0?
0A
0C
1E
1R
0&!
0S
#1320000
0!
04
0=
0>
1q
#1340000
1!
14
1=
1>
0q
0B
0D
1F
0M
1O
0'!
1}
0!!
1#!
1$!
1T
1?
0R
0Y
0]
1a
0v
1x
1z
1&!
0"!
1S
0W
1Z
1^
0b
#1360000
0!
04
0=
0>
1q
#1380000
1!
14
1=
1>
0q
1M
0O
0X
0\
1`
0h
1i
0j
1{
0m
1n
0w
1y
1o
1'!
0}
0?
1A
1R
0&!
0S
#1400000
0!
04
0=
0>
1q
#1420000
1!
14
1=
1>
0q
1B
0M
1O
0'!
1}
0$!
0T
1?
0R
1Y
0z
1&!
1"!
1S
1W
0Z
#1440000
0!
04
0=
0>
1q
#1460000
1!
14
1=
1>
0q
1M
0O
1X
1j
0{
0o
1'!
0}
0?
0A
1C
1R
0&!
0S
#1480000
0!
04
0=
0>
1q
#1500000
1!
14
1=
1>
0q
0B
1D
0M
1O
0'!
1}
0#!
1$!
1?
0R
0Y
1]
0x
1z
1&!
1S
0W
1Z
0^
#1520000
0!
04
0=
0>
1q
#1540000
1!
14
1=
1>
0q
1M
0O
0X
1\
1h
0j
1{
0n
0y
1o
1'!
0}
0?
1A
1R
0&!
0S
#1560000
0!
04
0=
0>
1q
#1580000
1!
14
1=
1>
0q
1B
0M
1O
0'!
1}
0$!
1?
0R
1Y
0z
1&!
1S
1W
0Z
#1600000
0!
04
0=
0>
1q
#1620000
1!
14
1=
1>
0q
1M
0O
1X
1j
0{
0o
1'!
0}
0?
0A
0C
0E
1G
1R
0&!
0S
#1640000
0!
04
0=
0>
1q
#1660000
1!
14
1=
1>
0q
0B
0D
0F
1H
0M
1O
0'!
1}
0~
1!!
1#!
1$!
1T
1?
0R
0Y
0]
0a
1e
0t
1v
1x
1z
1&!
0"!
1S
0W
1Z
1^
1b
0f
#1680000
0!
04
0=
0>
1q
#1700000
1!
14
1=
1>
0q
1M
0O
0X
0\
0`
1d
0h
0i
0j
1{
1m
1n
0u
1w
1y
1o
1'!
0}
0?
1A
1R
0&!
0S
#1720000
0!
04
0=
0>
1q
#1740000
1!
14
1=
1>
0q
1B
0M
1O
0'!
1}
0$!
0T
1?
0R
1Y
0z
1&!
1"!
1S
1W
0Z
#1760000
0!
04
0=
0>
1q
#1780000
1!
14
1=
1>
0q
1M
0O
1X
1j
0{
0o
1'!
0}
0?
0A
1C
1R
0&!
0S
#1800000
0!
04
0=
0>
1q
#1820000
1!
14
1=
1>
0q
0B
1D
0M
1O
0'!
1}
0#!
1$!
1?
0R
0Y
1]
0x
1z
1&!
1S
0W
1Z
0^
#1840000
0!
04
0=
0>
1q
#1860000
1!
14
1=
1>
0q
1M
0O
0X
1\
1h
0j
1{
0n
0y
1o
1'!
0}
0?
1A
1R
0&!
0S
#1880000
0!
04
0=
0>
1q
#1900000
1!
14
1=
1>
0q
1B
0M
1O
0'!
1}
0$!
1?
0R
1Y
0z
1&!
1S
1W
0Z
#1920000
0!
04
0=
0>
1q
#1940000
1!
14
1=
1>
0q
1M
0O
1X
1j
0{
0o
1'!
0}
0?
0A
0C
1E
1R
0&!
0S
#1960000
0!
04
0=
0>
1q
#1980000
1!
14
1=
1>
0q
0B
0D
1F
0M
1O
0'!
1}
0!!
1#!
1$!
1T
1K
1?
0R
0Y
0]
1a
0v
1x
1z
1&!
0s
0"!
1S
0W
1Z
1^
0b
