AAD/Pratico/Arquitetura/Projeto/Projeto1/simulation/qsim/encoderCRC8.msim.vcd
$comment
	File created using the following command:
		vcd file encoderCRC8.msim.vcd -direction
$end
$date
	Sun Nov 19 21:38:41 2023
$end
$version
	ModelSim Version 10.5b
$end
$timescale
	1ps
$end

$scope module encodercrc8_vhd_vec_tst $end
$var wire 1 ! an [23] $end
$var wire 1 " an [22] $end
$var wire 1 # an [21] $end
$var wire 1 $ an [20] $end
$var wire 1 % an [19] $end
$var wire 1 & an [18] $end
$var wire 1 ' an [17] $end
$var wire 1 ( an [16] $end
$var wire 1 ) an [15] $end
$var wire 1 * an [14] $end
$var wire 1 + an [13] $end
$var wire 1 , an [12] $end
$var wire 1 - an [11] $end
$var wire 1 . an [10] $end
$var wire 1 / an [9] $end
$var wire 1 0 an [8] $end
$var wire 1 1 an [7] $end
$var wire 1 2 an [6] $end
$var wire 1 3 an [5] $end
$var wire 1 4 an [4] $end
$var wire 1 5 an [3] $end
$var wire 1 6 an [2] $end
$var wire 1 7 an [1] $end
$var wire 1 8 an [0] $end
$var wire 1 9 error $end

$scope module i1 $end
$var wire 1 : gnd $end
$var wire 1 ; vcc $end
$var wire 1 < unknown $end
$var wire 1 = devoe $end
$var wire 1 > devclrn $end
$var wire 1 ? devpor $end
$var wire 1 @ ww_devoe $end
$var wire 1 A ww_devclrn $end
$var wire 1 B ww_devpor $end
$var wire 1 C ww_an [23] $end
$var wire 1 D ww_an [22] $end
$var wire 1 E ww_an [21] $end
$var wire 1 F ww_an [20] $end
$var wire 1 G ww_an [19] $end
$var wire 1 H ww_an [18] $end
$var wire 1 I ww_an [17] $end
$var wire 1 J ww_an [16] $end
$var wire 1 K ww_an [15] $end
$var wire 1 L ww_an [14] $end
$var wire 1 M ww_an [13] $end
$var wire 1 N ww_an [12] $end
$var wire 1 O ww_an [11] $end
$var wire 1 P ww_an [10] $end
$var wire 1 Q ww_an [9] $end
$var wire 1 R ww_an [8] $end
$var wire 1 S ww_an [7] $end
$var wire 1 T ww_an [6] $end
$var wire 1 U ww_an [5] $end
$var wire 1 V ww_an [4] $end
$var wire 1 W ww_an [3] $end
$var wire 1 X ww_an [2] $end
$var wire 1 Y ww_an [1] $end
$var wire 1 Z ww_an [0] $end
$var wire 1 [ ww_error $end
$var wire 1 \ \an[11]~input_o\ $end
$var wire 1 ] \an[13]~input_o\ $end
$var wire 1 ^ \an[14]~input_o\ $end
$var wire 1 _ \an[16]~input_o\ $end
$var wire 1 ` \an[21]~input_o\ $end
$var wire 1 a \an[22]~input_o\ $end
$var wire 1 b \~QUARTUS_CREATED_GND~I_combout\ $end
$var wire 1 c \an[4]~input_o\ $end
$var wire 1 d \an[3]~input_o\ $end
$var wire 1 e \an[1]~input_o\ $end
$var wire 1 f \an[0]~input_o\ $end
$var wire 1 g \an[2]~input_o\ $end
$var wire 1 h \err|y~0_combout\ $end
$var wire 1 i \an[12]~input_o\ $end
$var wire 1 j \an[10]~input_o\ $end
$var wire 1 k \an[6]~input_o\ $end
$var wire 1 l \an[7]~input_o\ $end
$var wire 1 m \an[9]~input_o\ $end
$var wire 1 n \an[8]~input_o\ $end
$var wire 1 o \err|y~1_combout\ $end
$var wire 1 p \an[5]~input_o\ $end
$var wire 1 q \an[23]~input_o\ $end
$var wire 1 r \an[20]~input_o\ $end
$var wire 1 s \an[19]~input_o\ $end
$var wire 1 t \an[15]~input_o\ $end
$var wire 1 u \an[18]~input_o\ $end
$var wire 1 v \an[17]~input_o\ $end
$var wire 1 w \err|y~2_combout\ $end
$var wire 1 x \err|y~3_combout\ $end
$var wire 1 y \ALT_INV_an[5]~input_o\ $end
$var wire 1 z \err|ALT_INV_y~0_combout\ $end
$var wire 1 { \err|ALT_INV_y~1_combout\ $end
$var wire 1 | \err|ALT_INV_y~2_combout\ $end
$var wire 1 } \ALT_INV_an[12]~input_o\ $end
$var wire 1 ~ \ALT_INV_an[23]~input_o\ $end
$var wire 1 !! \ALT_INV_an[20]~input_o\ $end
$var wire 1 "! \ALT_INV_an[19]~input_o\ $end
$var wire 1 #! \ALT_INV_an[18]~input_o\ $end
$var wire 1 $! \ALT_INV_an[17]~input_o\ $end
$var wire 1 %! \ALT_INV_an[15]~input_o\ $end
$var wire 1 &! \ALT_INV_an[10]~input_o\ $end
$var wire 1 '! \ALT_INV_an[9]~input_o\ $end
$var wire 1 (! \ALT_INV_an[8]~input_o\ $end
$var wire 1 )! \ALT_INV_an[7]~input_o\ $end
$var wire 1 *! \ALT_INV_an[6]~input_o\ $end
$var wire 1 +! \ALT_INV_an[4]~input_o\ $end
$var wire 1 ,! \ALT_INV_an[3]~input_o\ $end
$var wire 1 -! \ALT_INV_an[2]~input_o\ $end
$var wire 1 .! \ALT_INV_an[1]~input_o\ $end
$var wire 1 /! \ALT_INV_an[0]~input_o\ $end
$upscope $end
$upscope $end
$enddefinitions $end
#0
$dumpvars
09
0:
1;
x<
1=
1>
1?
1@
1A
1B
0[
0\
0]
0^
0_
0`
0a
xb
0c
0d
0e
0f
0g
0h
0i
0j
0k
0l
0m
0n
0o
0p
0q
0r
0s
0t
0u
0v
0w
0x
1y
1z
1{
1|
1}
1~
1!!
1"!
1#!
1$!
1%!
1&!
1'!
1(!
1)!
1*!
1+!
1,!
1-!
1.!
1/!
0!
0"
0#
0$
0%
0&
0'
0(
0)
0*
0+
0,
0-
0.
0/
00
01
02
03
04
05
06
07
08
0C
0D
0E
0F
0G
0H
0I
0J
0K
0L
0M
0N
0O
0P
0Q
0R
0S
0T
0U
0V
0W
0X
0Y
0Z
$end
#2432
1!
1"
1&
1'
1(
1*
1+
1.
1/
12
14
15
17
18
1Z
1Y
1W
1V
1T
1Q
1P
1M
1L
1J
1I
1H
1D
1C
1q
1a
1u
1v
1_
1^
1]
1j
1m
1k
1c
1d
1e
1f
0/!
0.!
0,!
0+!
0*!
0'!
0&!
0$!
0#!
0~
1x
1o
0{
0x
1[
19
0[
09
#256576
0!
0"
0&
0'
0(
0*
0+
0.
0/
02
04
05
07
08
0Z
0Y
0W
0V
0T
0Q
0P
0M
0L
0J
0I
0H
0D
0C
0q
0a
0u
0v
0_
0^
0]
0j
0m
0k
0c
0d
0e
0f
1/!
1.!
1,!
1+!
1*!
1'!
1&!
1$!
1#!
1~
1x
0o
1{
0x
1[
19
0[
09
#259008
1!
1&
1+
12
14
17
1$
1%
1)
1,
10
13
1Y
1V
1U
1T
1R
1N
1M
1K
1H
1G
1F
1C
1q
1r
1s
1u
1t
1]
1i
1n
1k
1p
1c
1e
0.!
0+!
0y
0*!
0(!
0}
0%!
0#!
0"!
0!!
0~
1x
1[
19
#454176
0$
0%
0)
0,
00
03
1"
1'
1(
1*
1.
1/
15
18
1Z
1W
0U
0R
1Q
1P
0N
1L
0K
1J
1I
0G
0F
1D
1a
0r
0s
1v
1_
0t
1^
0i
1j
1m
0n
0p
1d
1f
0/!
0,!
1y
1(!
0'!
0&!
1}
1%!
0$!
1"!
1!!
1o
0{
0x
0[
09
#575776
1$
1%
1)
1,
10
13
0"
0'
0(
0*
0.
0/
05
08
07
16
0Z
0Y
1X
0W
1U
1R
0Q
0P
1N
0L
1K
0J
0I
1G
1F
0D
0a
1r
1s
0v
0_
1t
0^
1i
0j
0m
1n
1p
0d
1g
0e
0f
1/!
1.!
0-!
1,!
0y
0(!
1'!
1&!
0}
0%!
1$!
0"!
0!!
0o
1{
1x
1[
19
#687648
0$
0%
0)
0,
00
03
1"
1'
1(
1*
1.
1/
15
18
17
06
04
1Z
1Y
0X
1W
0V
0U
0R
1Q
1P
0N
1L
0K
1J
1I
0G
0F
1D
1a
0r
0s
1v
1_
0t
1^
0i
1j
1m
0n
0p
0c
1d
0g
1e
1f
0/!
0.!
1-!
0,!
1+!
1y
1(!
0'!
0&!
1}
1%!
0$!
1"!
1!!
1o
1h
0z
0{
#747840
08
14
0Z
1V
1c
0f
1/!
0+!
#841472
18
13
05
16
1Z
1X
0W
1U
1p
0d
1g
1f
0/!
0-!
1,!
0y
0x
0h
1z
1x
0[
09
1[
19
#994080
08
03
06
04
0"
0'
0(
0*
0.
0/
07
0!
0&
0+
02
0Z
0Y
0X
0V
0U
0T
0Q
0P
0M
0L
0J
0I
0H
0D
0C
0q
0a
0u
0v
0_
0^
0]
0j
0m
0k
0p
0c
0g
0e
0f
1/!
1.!
1-!
1+!
1y
1*!
1'!
1&!
1$!
1#!
1~
0o
1{
0x
0[
09
