AAD/Pratico/Arquitetura/Enco/simulation/qsim/EncoderCRC8.msim.vcd
$comment
	File created using the following command:
		vcd file EncoderCRC8.msim.vcd -direction
$end
$date
	Mon Nov 27 18:27:56 2023
$end
$version
	ModelSim Version 10.5b
$end
$timescale
	1ps
$end

$scope module encodercrc8_vhd_vec_tst $end
$var wire 1 ! clk $end
$var wire 1 " dataIn $end
$var wire 1 # nGRst $end
$var wire 1 $ resto $end

$scope module i1 $end
$var wire 1 % gnd $end
$var wire 1 & vcc $end
$var wire 1 ' unknown $end
$var wire 1 ( devoe $end
$var wire 1 ) devclrn $end
$var wire 1 * devpor $end
$var wire 1 + ww_devoe $end
$var wire 1 , ww_devclrn $end
$var wire 1 - ww_devpor $end
$var wire 1 . ww_nGRst $end
$var wire 1 / ww_clk $end
$var wire 1 0 ww_dataIn $end
$var wire 1 1 ww_resto $end
$var wire 1 2 \~QUARTUS_CREATED_GND~I_combout\ $end
$var wire 1 3 \clk~input_o\ $end
$var wire 1 4 \clk~inputCLKENA0_outclk\ $end
$var wire 1 5 \dataIn~input_o\ $end
$var wire 1 6 \ff|Q~feeder_combout\ $end
$var wire 1 7 \nGRst~input_o\ $end
$var wire 1 8 \ff|Q~q\ $end
$var wire 1 9 \ff2|Q~feeder_combout\ $end
$var wire 1 : \ff2|Q~q\ $end
$var wire 1 ; \ff|ALT_INV_Q~q\ $end
$var wire 1 < \ALT_INV_dataIn~input_o\ $end
$upscope $end
$upscope $end
$enddefinitions $end
#0
$dumpvars
0!
0"
0#
0$
0%
1&
x'
1(
1)
1*
1+
1,
1-
0.
0/
00
01
x2
03
04
05
06
07
08
09
0:
1;
1<
$end
#20000
1!
1/
13
14
#40000
0!
1#
0/
1.
17
03
04
#60000
1!
1"
1/
10
15
13
14
0<
16
#80000
0!
0"
0/
00
05
03
04
1<
06
#100000
1!
1"
1/
10
15
13
14
0<
16
#120000
0!
0"
0/
00
05
03
04
1<
06
#140000
1!
1"
1/
10
15
13
14
0<
16
#160000
0!
0"
0/
00
05
03
04
1<
06
#180000
1!
1"
1/
10
15
13
14
0<
16
#200000
0!
0"
0/
00
05
03
04
1<
06
#220000
1!
1/
13
14
#240000
0!
0/
03
04
#260000
1!
1/
13
14
#280000
0!
0/
03
04
#300000
1!
1/
13
14
#320000
0!
0/
03
04
#340000
1!
1/
13
14
#360000
0!
0/
03
04
#380000
1!
1"
1/
10
15
13
14
0<
16
#400000
0!
0"
0/
00
05
03
04
1<
06
#420000
1!
1"
1/
10
15
13
14
0<
16
#440000
0!
0"
0/
00
05
03
04
1<
06
#460000
1!
1"
1/
10
15
13
14
0<
16
#480000
0!
0"
0/
00
05
03
04
1<
06
#500000
1!
1"
1/
10
15
13
14
0<
16
#520000
0!
0"
0/
00
05
03
04
1<
06
#540000
1!
1/
13
14
#560000
0!
0/
03
04
#580000
1!
1/
13
14
#600000
0!
0/
03
04
#620000
1!
1/
13
14
#640000
0!
0/
03
04
#660000
1!
1/
13
14
#680000
0!
0/
03
04
#700000
1!
1/
13
14
#720000
0!
0/
03
04
#740000
1!
1/
13
14
#760000
0!
0/
03
04
#780000
1!
1/
13
14
#800000
0!
0/
03
04
#820000
1!
1/
13
14
#840000
0!
0/
03
04
#860000
1!
1/
13
14
#880000
0!
0/
03
04
#900000
1!
1/
13
14
#920000
0!
0/
03
04
#940000
1!
1/
13
14
#960000
0!
0/
03
04
#980000
1!
1/
13
14
#1000000
0!
0/
03
04
#1020000
1!
1/
13
14
#1040000
0!
0/
03
04
#1060000
1!
1/
13
14
#1080000
0!
0/
03
04
#1100000
1!
1/
13
14
#1120000
0!
0/
03
04
#1140000
1!
1/
13
14
#1160000
0!
0/
03
04
#1180000
1!
1/
13
14
#1200000
0!
0/
03
04
#1220000
1!
1/
13
14
#1240000
0!
0/
03
04
#1260000
1!
1/
13
14
#1280000
0!
0/
03
04
#1300000
1!
1/
13
14
#1320000
0!
0/
03
04
#1340000
1!
1/
13
14
#1360000
0!
0/
03
04
#1380000
1!
1/
13
14
#1400000
0!
0/
03
04
#1420000
1!
1/
13
14
#1440000
0!
0/
03
04
#1460000
1!
1/
13
14
#1480000
0!
0/
03
04
#1500000
1!
1/
13
14
#1520000
0!
0/
03
04
#1540000
1!
1/
13
14
#1560000
0!
0/
03
04
#1580000
1!
1/
13
14
#1600000
0!
0/
03
04
#1620000
1!
1/
13
14
#1640000
0!
0/
03
04
#1660000
1!
1/
13
14
#1680000
0!
0/
03
04
#1700000
1!
1/
13
14
#1720000
0!
0/
03
04
#1740000
1!
1/
13
14
#1760000
0!
0/
03
04
#1780000
1!
1/
13
14
#1800000
0!
0/
03
04
#1820000
1!
1/
13
14
#1840000
0!
0/
03
04
#1860000
1!
1/
13
14
#1880000
0!
0/
03
04
#1900000
1!
1/
13
14
#1920000
0!
0/
03
04
#1940000
1!
1/
13
14
#1960000
0!
0/
03
04
#1980000
1!
0#
1/
0.
07
13
14
